Lab 5
…
diabetes_clean %>% group_by(gender) %>% summarise(mean.glyhb = mean(glyhb_star))

## # A tibble: 2 x 2
##   gender mean.glyhb
##   <fct>       <dbl>
## 1 female       1.65
## 2 male         1.69

diabetes_clean %>% group_by(age) %>% summarise(mean.glyhb = mean(glyhb_star))

## # A tibble: 67 x 2
##      age mean.glyhb
##    <int>      <dbl>
##  1    19       1.51
##  2    20       1.51
##  3    21       1.47
##  4    22       1.39
##  5    23       1.53
##  6    24       1.53
##  7    25       1.58
##  8    26       1.61
##  9    27       1.51
## 10    28       1.45
## #  with 57 more rows

diabetes_clean %>% group_by(weight) %>% summarise(mean.glyhb = mean(glyhb_star))

## # A tibble: 137 x 2
##    weight mean.glyhb
##     <int>      <dbl>
##  1     99       1.46
##  2    102       1.49
##  3    105       1.46
##  4    109       1.54
##  5    110       1.58
##  6    113       1.53
##  7    114       1.35
##  8    115       1.34
##  9    118       1.40
## 10    119       1.47
## #  with 127 more rows

diabetes_clean %>% group_by(height) %>% summarise(mean.glyhb = mean(glyhb_star))

## # A tibble: 21 x 2
##    height mean.glyhb
##     <int>      <dbl>
##  1     52       1.45
##  2     55       1.57
##  3     58       1.58
##  4     59       1.85
##  5     60       1.74
##  6     61       1.68
##  7     62       1.66
##  8     63       1.66
##  9     64       1.54
## 10     65       1.66
## #  with 11 more rows
…
